N
b550,65,Q,"123456"
A530,150,2,1,1,1,N,"SITE ID"
A530,130,2,1,1,1,N,"STUDY ID"
A530,110,2,1,1,1,N,"TYPE NAME"
A530,90,2,1,1,1,N,"SEQ NO."
A530,70,2,1,1,1,N,"DATE"
b330,65,Q,"123456"
A310,150,2,1,1,1,N,"SITE ID"
A310,130,2,1,1,1,N,"STUDY ID"
A310,110,2,1,1,1,N,"TYPE NAME"
A310,90,2,1,1,1,N,"SEQ NO."
A310,70,2,1,1,1,N,"DATE"
b100,65,Q,"123456"
A80,150,2,1,1,1,N,"SITE ID"
A80,130,2,1,1,1,N,"STUDY ID"
A80,110,2,1,1,1,N,"TYPE NAME"
A80,90,2,1,1,1,N,"SEQ NO."
A80,70,2,1,1,1,N,"DATE"
P1