FK"SLIDE"
FS"SLIDE"
V00,9,N,"STUDY ID"
V01,9,N,"SAMPLE TYPE"
V02,10,N,"DATE"
C00,2,N,+1,"SEQ NO."
b540,45,Q,V00"-"V01C00
A520,110,2,1,1,1,N,V00
A520,90,2,1,1,1,N,V01C00
A540,20,2,1,1,1,N,V02
b320,45,Q,V00"-"V01C00+1
A300,110,2,1,1,1,N,V00
A300,90,2,1,1,1,N,V01C00+1
A320,20,2,1,1,1,N,V02
b100,45,Q,V00"-"V01C00+2
A80,110,2,1,1,1,N,V00
A80,90,2,1,1,1,N,V01C00+2
A100,20,2,1,1,1,N,V02
FE
